{
    "report_serial_number": "",
    "sample_info": {
        "姓名": "汉武帝",
        "性别": "男",
        "年龄": "-",
        "送检单位": "广州呼研所",
        "样本条形码": "xxxxx",
        "报告时间": "2021-08-30",
        "样本号": "xxxx",
        "住院号/床号": "xxx",
        "医院名称": "二院",
        "科室名称": "神经科",
        "送检医生": "王小二",
        "样本类型": "血液",
        "采样日期": "2021-08-30",
        "收样日期": "2021-08-30",
        "主诉": "张大爷",
        "临床诊断": "无",
        "临床高度关注病原": "白念",
        "抗感染药用药及时长": "无",
        "白细胞计数": "-",
        "中性粒细胞计数": "-",
        "淋巴细胞计数": "-",
        "降钙素原": "-",
        "c反应蛋白": "-",
        "培养结果": "白念",
        "镜检结果": "白念",
        "其它": "无",
        "临床专家观点": "男性，79 岁，因反复咳嗽10 余天，加重伴发热1 天入院，咳嗽，发热，白细胞正常，CT 异常，肺泡灌洗液检出铜绿假单胞菌，副血链球菌和白色念珠菌，结核分枝杆菌QPCR 试验阴性，检出均为条件致病，请临床完善痰培养、真菌涂片、真菌G 试验、找抗酸杆菌等检查，明确诊断和治疗。",
        "审核日期": "2021-08-30"
    },
    "report_results": {
        "细菌": [{
                "type": "G-",
                "c_name_g": "假单胞菌属",
                "l_name_g": "Pseudomonas",
                "g_reads": "9081",
                "species": [{
                        "id": "",
                        "c_name_s": "铜绿假单胞菌",
                        "l_name_s": "Pseudomonas aeruginosa",
                        "reads": "8175",
                        "coverage": "99%",
                        "annotation": "铜绿假单胞菌广泛分布于水、空气、土壤，以及正常人体皮肤、呼吸道与肠道黏膜中，为条件致病菌，是医院内感染的主要病原菌之一。可引起菌血症、急性肺炎、慢性呼吸道感染、血管内感染、骨关节感染、中枢神经系统感染（主要发生在神经外科手术后）、眼部感染、耳部感染、尿路感染、皮肤软组织感染、发热伴中性粒细胞减少症患者的感染、艾滋病患者的感染、多重耐药菌感染。患代谢性疾病，血液病和恶性肿瘤的患者，以及因手术、化疗、放疗、激素治疗等原因人体抵抗力下降、黏膜创伤、生理紊乱和抗菌药物抑制正常菌群时容易引起感染。"
                    },
                    {
                        "id": "",
                        "c_name_s": "浅黄假单胞菌",
                        "l_name_s": "Pseudomonas luteola",
                        "reads": "20",
                        "coverage": "2%",
                        "annotation": "-"
                    }
                ]
            },
            {
                "type": "G-",
                "c_name_g": "克雷伯菌属",
                "l_name_g": "Klebsiella",
                "g_reads": "3000",
                "species": [{
                    "id": "",
                    "c_name_s": "肺炎克雷伯菌",
                    "l_name_s": "Klebsiella pneumoniae",
                    "reads": "2000",
                    "coverage": "98%",
                    "annotation": "-"
                }]
            }
        ],
        "真菌": [{
            "c_name_g": "念珠菌属",
            "l_name_g": "Candida",
            "g_reads": "100",
            "species": [{
                "id": "",
                "c_name_s": "白色念珠菌",
                "l_name_s": "Candida albicans",
                "reads": "87",
                "coverage": "70%",
                "annotation": "白色念珠菌寄生于正常人口腔上呼吸道和消化道等部位，一般不引起健康人的肺部疾病，在健康水平较差、抵抗力明显下降，大量应用抗生素及长期或大剂量应用激素时易患该病。此外，还可引起泌尿道炎、心内膜炎及脑膜炎等，偶可引起念珠菌性败血症。"
            }]
        }],
        "DNA病毒": [{
            "id": "",
            "c_name_s": "EB病毒",
            "l_name_s": "Human gammaherpesvirus 4",
            "reads": "200",
            "coverage": "90%",
            "annotation": "-"
        }],
        "RNA病毒": [],
        "寄生虫": [],
        "分枝杆菌": [],
        "支衣原体": []
    },
    "selected_rg_reports": [{
        "基因": "xx",
        "抗生素": "xx",
        "比对一致率": "xx",
        "常见菌属": "-"
    }],
    "report_bg_bacterias": {
        "细菌": [{
            "c_name_s": "非典型韦荣球菌",
            "l_name_s": "Veillonella atypica",
            "reads": "3609",
            "annotation": "是革兰阴性厌氧球菌，有报道可能会与龋齿放线菌引起肺部感染",
            "article": "PMID: 31576208.Crisafulli E, Bernardinello N, Alfieri V, Pellegrino F, Lazzari C, Gnetti L, Chetta A. A pulmonary infection by Actinomyces odontolyticus and Veillonella atypica in an immunocompetent patient with dental caries. Respirol Case Rep. 2019 Sep 30;7(9):e00493."
        }],
        "真菌": [],
        "病毒": [],
        "寄生虫": [],
        "分枝杆菌": [],
        "支衣原体": []
    },
    "report_stats": {
        "总序列数": 11638220,
        "微生物序列数": 1055928,
        "内参检出率": "100%",
        "阴阳性质控": "合格"
    }
}